{
  "navigation" : {
    "Index": {
      "title": "Магазины",
      "href": "shops.html",
      "subitems": false
    },
    "Catalog" : {
      "title": "Акции",
      "href": "shares.html",
      "subitems": false
    },
    "About" : {
      "title": "О нас",
      "href": "agency.html",
      "subitems": false
    }
  }
}
